Chapter 13 Data Wrangling with tidyverse | Reproducible Data Science
…
morphometrics %>% 
  as_tibble() %>% 
  select(-measurement_id) %>% 
  mutate(wingspan_m = wingspan_cm/100) %>% 
  filter(wingspan_m > 10) 

## # A tibble: 192 × 8
##    dragon_id date       total_body_length_cm wingspan_cm tail_length_cm
##    <chr>     <chr>                     <dbl>       <dbl>          <dbl>
##  1 D96       2012-10-10                1070.       1390.           595.
##  2 D316      2017-09-08                 867.       1052.           374.
##  3 D317      2016-09-05                1147.       1357.           543.
##  4 D484      2016-12-04                1032.       1721.           596.
##  5 D149      2012-02-13                 920.       1534.           564.
##  6 D283      2007-06-21                1698.       1387.           666.
##  7 D485      2002-10-04                 957.       1780.           561.
##  8 D343      2016-04-08                1521.       1538.           618.
##  9 D237      2009-02-22                1205.       2120.           656.
## 10 D312      2001-06-16                 927.       1268.           453.
## # ℹ 182 more rows
## # ℹ 3 more variables: tarsus_length_cm <dbl>, claw_length_cm <dbl>,
## #   wingspan_m <dbl>
…
In Chapter 6, we talked about SQL joins. The concept of a join is not
exclusive to SQL, and in fact the tidyverse has functions that serve the same
exact purpose of SQL joins. Let’s get familiar with the one you’ll use most
often, left_join. As a reminder, a left join keeps all the rows of the left
table (the one you mention first) while attaching information from the right
table (the second one) whenever available. If no information is available, the
columns coming from the right table will have NA but the row will be retained.
To join two tables, these need to share at least one column. Let’s join the
morphometrics table with the dragons table:

morphometrics %>% 
  as_tibble() %>% 
  left_join(dragons, by = "dragon_id") 

## # A tibble: 327 × 12
##    measurement_id dragon_id date       total_body_length_cm wingspan_cm
##             <int> <chr>     <chr>                     <dbl>       <dbl>
##  1              1 D96       2012-10-10                1070.       1390.
##  2              2 D400      2003-07-03                 333.        635.
##  3              3 D316      2017-09-08                 867.       1052.
##  4              4 D317      2016-09-05                1147.       1357.
##  5              5 D484      2016-12-04                1032.       1721.
##  6              6 D149      2012-02-13                 920.       1534.
##  7              7 D285      2016-03-23                 305.        699.
##  8              8 D256      2013-09-07                 359.        652.
##  9              9 D283      2007-06-21                1698.       1387.
## 10             10 D213      2001-12-12                 354.        671.
## # ℹ 317 more rows
## # ℹ 7 more variables: tail_length_cm <dbl>, tarsus_length_cm <dbl>,
## #   claw_length_cm <dbl>, sex <chr>, age_class <chr>, species <chr>,
## #   update_timestamp <chr>

In this case the shared column has the same name in the two tables. If it
doesn’t, you can still join based on that column. Let’s demonstrate how:

morphometrics %>% 
  as_tibble() %>% 
  rename(dragon = dragon_id) %>% # now the dragon_id column is called "dragon"
  left_join(dragons, by = c("dragon" = "dragon_id")) 

## # A tibble: 327 × 12
##    measurement_id dragon date    total_body_length_cm wingspan_cm tail_length_cm
##             <int> <chr>  <chr>                  <dbl>       <dbl>          <dbl>
##  1              1 D96    2012-1…                1070.       1390.           595.
##  2              2 D400   2003-0…                 333.        635.           104.
##  3              3 D316   2017-0…                 867.       1052.           374.
##  4              4 D317   2016-0…                1147.       1357.           543.
##  5              5 D484   2016-1…                1032.       1721.           596.
##  6              6 D149   2012-0…                 920.       1534.           564.
##  7              7 D285   2016-0…                 305.        699.           116.
##  8              8 D256   2013-0…                 359.        652.           148.
##  9              9 D283   2007-0…                1698.       1387.           666.
## 10             10 D213   2001-1…                 354.        671.           140.
## # ℹ 317 more rows
## # ℹ 6 more variables: tarsus_length_cm <dbl>, claw_length_cm <dbl>, sex <chr>,
## #   age_class <chr>, species <chr>, update_timestamp <chr>
…
13.2.8 Changing the order of columns

Incidentally, I have just shown how to change the name of a column by using
rename. We can also change the order in which columns appear in our table
using relocate. For example, say that we want to move the age class column
to right after the dragon ID:

morphometrics %>% 
  as_tibble() %>% 
  left_join(dragons, by = "dragon_id") %>%  
  relocate(age_class, .after = dragon_id)

## # A tibble: 327 × 12
##    measurement_id dragon_id age_class date      total_body_length_cm wingspan_cm
##             <int> <chr>     <chr>     <chr>                    <dbl>       <dbl>
##  1              1 D96       Adult     2012-10-…                1070.       1390.
##  2              2 D400      Juvenile  2003-07-…                 333.        635.
##  3              3 D316      Subadult  2017-09-…                 867.       1052.
##  4              4 D317      Adult     2016-09-…                1147.       1357.
##  5              5 D484      Adult     2016-12-…                1032.       1721.
##  6              6 D149      Adult     2012-02-…                 920.       1534.
##  7              7 D285      Juvenile  2016-03-…                 305.        699.
##  8              8 D256      Juvenile  2013-09-…                 359.        652.
##  9              9 D283      Adult     2007-06-…                1698.       1387.
## 10             10 D213      Juvenile  2001-12-…                 354.        671.
## # ℹ 317 more rows
## # ℹ 6 more variables: tail_length_cm <dbl>, tarsus_length_cm <dbl>,
## #   claw_length_cm <dbl>, sex <chr>, species <chr>, update_timestamp <chr>
…
## [1] "tbl_df"     "tbl"        "data.frame"

Now that we have a vector with the species that we want to retain, we can apply
our filter:

morphometrics %>% 
  as_tibble() %>% 
  left_join(dragons, by = "dragon_id") %>% 
  filter(species %in% species_over30)

## # A tibble: 264 × 12
##    measurement_id dragon_id date       total_body_length_cm wingspan_cm
##             <int> <chr>     <chr>                     <dbl>       <dbl>
##  1              1 D96       2012-10-10                1070.       1390.
##  2              2 D400      2003-07-03                 333.        635.
##  3              3 D316      2017-09-08                 867.       1052.
##  4              5 D484      2016-12-04                1032.       1721.
##  5              6 D149      2012-02-13                 920.       1534.
##  6              7 D285      2016-03-23                 305.        699.
##  7              8 D256      2013-09-07                 359.        652.
##  8              9 D283      2007-06-21                1698.       1387.
##  9             10 D213      2001-12-12                 354.        671.
## 10             11 D485      2002-10-04                 957.       1780.
## # ℹ 254 more rows
## # ℹ 7 more variables: tail_length_cm <dbl>, tarsus_length_cm <dbl>,
## #   claw_length_cm <dbl>, sex <chr>, age_class <chr>, species <chr>,
## #   update_timestamp <chr>
…
  left_join(dragons, by = "dragon_id") %>% 
  mutate(sex_age_combo = case_when(
    sex == "F" & age_class == "Adult" ~ "Adult Female",
    sex == "M" & age_class == "Adult" ~ "Adult Male",
    sex == "F" & age_class == "Subadult" ~ "Subadult Female",
    sex == "M" & age_class == "Subadult" ~ "Subadult Male",
    sex == "F" & age_class == "Juvenile" ~ "Juvenile Female",
    sex == "M" & age_class == "Juvenile" ~ "Juvenile Female",
    is.na(sex) & age_class == "Adult" ~ "Adult Unknown",
    is.na(sex) & age_class == "Subadult" ~ "Subadult Unknown",
    is.na(sex) & age_class == "Juvenile" ~ "Juvenile Unknown"
    )) %>% 
  select(dragon_id, sex, age_class, sex_age_combo)

## # A tibble: 327 × 4
##    dragon_id sex   age_class sex_age_combo   
##    <chr>     <chr> <chr>     <chr>           
##  1 D96       F     Adult     Adult Female    
##  2 D400      <NA>  Juvenile  Juvenile Unknown
##  3 D316      M     Subadult  Subadult Male   
##  4 D317      F     Adult     Adult Female    
##  5 D484      M     Adult     Adult Male      
##  6 D149      M     Adult     Adult Male      
##  7 D285      <NA>  Juvenile  Juvenile Unknown
##  8 D256      <NA>  Juvenile  Juvenile Unknown
##  9 D283      F     Adult     Adult Female    
## 10 D213      <NA>  Juvenile  Juvenile Unknown
## # ℹ 317 more rows
…
  as_tibble() %>% 
  left_join(dragons, by = "dragon_id") %>% 
  mutate(sex_age_combo = case_when(
    sex == "F" & age_class == "Adult" ~ "Adult Female",
    sex == "M" & age_class == "Adult" ~ "Adult Male",
    sex == "F" & age_class == "Subadult" ~ "Subadult Female",
    sex == "F" & age_class == "Juvenile" ~ "Juvenile Female",
    sex == "M" & age_class == "Juvenile" ~ "Juvenile Female",
    is.na(sex) & age_class == "Adult" ~ "Adult Unknown",
    is.na(sex) & age_class == "Subadult" ~ "Subadult Unknown",
    is.na(sex) & age_class == "Juvenile" ~ "Juvenile Unknown"
    )) %>% 
  select(dragon_id, sex, age_class, sex_age_combo)

## # A tibble: 327 × 4
##    dragon_id sex   age_class sex_age_combo   
##    <chr>     <chr> <chr>     <chr>           
##  1 D96       F     Adult     Adult Female    
##  2 D400      <NA>  Juvenile  Juvenile Unknown
##  3 D316      M     Subadult  <NA>            
##  4 D317      F     Adult     Adult Female    
##  5 D484      M     Adult     Adult Male      
##  6 D149      M     Adult     Adult Male      
##  7 D285      <NA>  Juvenile  Juvenile Unknown
##  8 D256      <NA>  Juvenile  Juvenile Unknown
##  9 D283      F     Adult     Adult Female    
## 10 D213      <NA>  Juvenile  Juvenile Unknown
## # ℹ 317 more rows
…
morphometrics %>% 
  as_tibble() %>% 
  left_join(dragons, by = "dragon_id") %>% 
  mutate(sex_age_combo = case_when(
    sex == "F" & age_class == "Adult" ~ "Adult Female",
    sex == "M" & age_class == "Adult" ~ "Adult Male",
    sex == "F" & age_class == "Subadult" ~ "Subadult Female",
    sex == "M" & age_class == "Subadult" ~ "Subadult Male",
    sex == "F" & age_class == "Juvenile" ~ "Juvenile Female",
    sex == "M" & age_class == "Juvenile" ~ "Juvenile Female",
    TRUE ~ "Unknown"
    )) %>% 
  select(dragon_id, sex, age_class, sex_age_combo)

## # A tibble: 327 × 4
##    dragon_id sex   age_class sex_age_combo
##    <chr>     <chr> <chr>     <chr>        
##  1 D96       F     Adult     Adult Female 
##  2 D400      <NA>  Juvenile  Unknown      
##  3 D316      M     Subadult  Subadult Male
##  4 D317      F     Adult     Adult Female 
##  5 D484      M     Adult     Adult Male   
##  6 D149      M     Adult     Adult Male   
##  7 D285      <NA>  Juvenile  Unknown      
##  8 D256      <NA>  Juvenile  Unknown      
##  9 D283      F     Adult     Adult Female 
## 10 D213      <NA>  Juvenile  Unknown      
## # ℹ 317 more rows
…
morphometrics %>% 
  as_tibble() %>% 
  left_join(dragons, by = "dragon_id") %>% 
  mutate(sex_age_combo = case_when(
    sex == "F" & age_class == "Adult" ~ "Adult Female",
    sex == "M" & age_class == "Adult" ~ "Adult Male",
    sex == "F" & age_class == "Subadult" ~ "Subadult Female",
    sex == "M" & age_class == "Subadult" ~ "Subadult Male",
    sex == "F" & age_class == "Juvenile" ~ "Juvenile Female",
    sex == "M" & age_class == "Juvenile" ~ "Juvenile Female",
    TRUE ~ age_class
    )) %>% 
  select(dragon_id, sex, age_class, sex_age_combo)

## # A tibble: 327 × 4
##    dragon_id sex   age_class sex_age_combo
##    <chr>     <chr> <chr>     <chr>        
##  1 D96       F     Adult     Adult Female 
##  2 D400      <NA>  Juvenile  Juvenile     
##  3 D316      M     Subadult  Subadult Male
##  4 D317      F     Adult     Adult Female 
##  5 D484      M     Adult     Adult Male   
##  6 D149      M     Adult     Adult Male   
##  7 D285      <NA>  Juvenile  Juvenile     
##  8 D256      <NA>  Juvenile  Juvenile     
##  9 D283      F     Adult     Adult Female 
## 10 D213      <NA>  Juvenile  Juvenile     
## # ℹ 317 more rows
…
